{
  "resourceType": "CapabilityStatement",
  "status": "active",
  "date": "2020-09-09T08:55:34+00:00",
  "publisher": "Not provided",
  "kind": "instance",
  "software": {
    "name": "HAPI FHIR Server",
    "version": "3.7.0"
  },
  "implementation": {
    "description": "FHIR Server",
    "url": "http://localhost:8096/baseR4"
  },
  "fhirVersion": "4.0.0",
  "format": [
    "application/fhir+xml",
    "application/fhir+json"
  ],
  "rest": [
    {
      "mode": "server",
      "resource": [
        {
          "type": "OperationDefinition",
          "profile": "http://hl7.org/fhir/StructureDefinition/OperationDefinition",
          "interaction": [
            {
              "code": "read"
            }
          ],
          "versioning": "versioned-update",
          "searchParam": [
            {
              "name": "_language",
              "type": "string",
              "documentation": "The language of the resource"
            },
            {
              "name": "date",
              "type": "date",
              "documentation": "The operation definition publication date"
            },
            {
              "name": "code",
              "type": "token",
              "documentation": "Name used to invoke the operation"
            },
            {
              "name": "instance",
              "type": "token",
              "documentation": "Invoke on an instance?"
            },
            {
              "name": "context-type-value",
              "type": "composite",
              "documentation": "A use context type and value assigned to the operation definition"
            },
            {
              "name": "kind",
              "type": "token",
              "documentation": "operation | query"
            },
            {
              "name": "jurisdiction",
              "type": "token",
              "documentation": "Intended jurisdiction for the operation definition"
            },
            {
              "name": "description",
              "type": "string",
              "documentation": "The description of the operation definition"
            },
            {
              "name": "context-type",
              "type": "token",
              "documentation": "A type of use context assigned to the operation definition"
            },
            {
              "name": "title",
              "type": "string",
              "documentation": "The human-friendly name of the operation definition"
            },
            {
              "name": "type",
              "type": "token",
              "documentation": "Invoke at the type level?"
            },
            {
              "name": "version",
              "type": "token",
              "documentation": "The business version of the operation definition"
            },
            {
              "name": "url",
              "type": "uri",
              "documentation": "The uri that identifies the operation definition"
            },
            {
              "name": "context-quantity",
              "type": "quantity",
              "documentation": "A quantity- or range-valued use context assigned to the operation definition"
            },
            {
              "name": "input-profile",
              "type": "reference",
              "documentation": "Validation information for in parameters"
            },
            {
              "name": "output-profile",
              "type": "reference",
              "documentation": "Validation information for out parameters"
            },
            {
              "name": "system",
              "type": "token",
              "documentation": "Invoke at the system level?"
            },
            {
              "name": "context",
              "type": "token",
              "documentation": "A use context assigned to the operation definition"
            },
            {
              "name": "name",
              "type": "string",
              "documentation": "Computationally friendly name of the operation definition"
            },
            {
              "name": "publisher",
              "type": "string",
              "documentation": "Name of the publisher of the operation definition"
            },
            {
              "name": "_id",
              "type": "token",
              "documentation": "The ID of the resource"
            },
            {
              "name": "context-type-quantity",
              "type": "composite",
              "documentation": "A use context type and quantity- or range-based value assigned to the operation definition"
            },
            {
              "name": "base",
              "type": "reference",
              "documentation": "Marks this as a profile of the base"
            },
            {
              "name": "status",
              "type": "token",
              "documentation": "The current status of the operation definition"
            }
          ]
        },
        {
          "type": "PlanDefinition",
          "profile": "http://hl7.org/fhir/StructureDefinition/PlanDefinition",
          "interaction": [
            {
              "code": "read"
            },
            {
              "code": "vread"
            },
            {
              "code": "patch"
            },
            {
              "code": "history-instance"
            },
            {
              "code": "history-type"
            },
            {
              "code": "search-type"
            }
          ],
          "versioning": "versioned-update",
          "searchParam": [
            {
              "name": "_language",
              "type": "string",
              "documentation": "The language of the resource"
            },
            {
              "name": "date",
              "type": "date",
              "documentation": "The plan definition publication date"
            },
            {
              "name": "successor",
              "type": "reference",
              "documentation": "What resource is being referenced"
            },
            {
              "name": "context-type-value",
              "type": "composite",
              "documentation": "A use context type and value assigned to the plan definition"
            },
            {
              "name": "jurisdiction",
              "type": "token",
              "documentation": "Intended jurisdiction for the plan definition"
            },
            {
              "name": "derived-from",
              "type": "reference",
              "documentation": "What resource is being referenced"
            },
            {
              "name": "description",
              "type": "string",
              "documentation": "The description of the plan definition"
            },
            {
              "name": "context-type",
              "type": "token",
              "documentation": "A type of use context assigned to the plan definition"
            },
            {
              "name": "predecessor",
              "type": "reference",
              "documentation": "What resource is being referenced"
            },
            {
              "name": "composed-of",
              "type": "reference",
              "documentation": "What resource is being referenced"
            },
            {
              "name": "title",
              "type": "string",
              "documentation": "The human-friendly name of the plan definition"
            },
            {
              "name": "type",
              "type": "token",
              "documentation": "The type of artifact the plan (e.g. order-set, eca-rule, protocol)"
            },
            {
              "name": "context-quantity",
              "type": "quantity",
              "documentation": "A quantity- or range-valued use context assigned to the plan definition"
            },
            {
              "name": "depends-on",
              "type": "reference",
              "documentation": "What resource is being referenced"
            },
            {
              "name": "effective",
              "type": "date",
              "documentation": "The time during which the plan definition is intended to be in use"
            },
            {
              "name": "managing-organization",
              "type": "token",
              "documentation": "Value part of logical reference to organization that manages this PlanDefinition"
            },
            {
              "name": "context",
              "type": "token",
              "documentation": "A use context assigned to the plan definition"
            },
            {
              "name": "definition",
              "type": "reference",
              "documentation": "Activity or plan definitions used by plan definition"
            },
            {
              "name": "context-type-quantity",
              "type": "composite",
              "documentation": "A use context type and quantity- or range-based value assigned to the plan definition"
            },
            {
              "name": "identifier",
              "type": "token",
              "documentation": "External identifier for the plan definition"
            },
            {
              "name": "version",
              "type": "token",
              "documentation": "The business version of the plan definition"
            },
            {
              "name": "url",
              "type": "uri",
              "documentation": "The uri that identifies the plan definition"
            },
            {
              "name": "name",
              "type": "string",
              "documentation": "Computationally friendly name of the plan definition"
            },
            {
              "name": "publisher",
              "type": "string",
              "documentation": "Name of the publisher of the plan definition"
            },
            {
              "name": "topic",
              "type": "token",
              "documentation": "Topics associated with the module"
            },
            {
              "name": "_id",
              "type": "token",
              "documentation": "The ID of the resource"
            },
            {
              "name": "status",
              "type": "token",
              "documentation": "The current status of the plan definition"
            }
          ]
        },
        {
          "type": "StructureDefinition",
          "profile": "http://hl7.org/fhir/StructureDefinition/StructureDefinition",
          "interaction": [
            {
              "code": "read"
            },
            {
              "code": "search-type"
            }
          ],
          "versioning": "versioned-update",
          "searchParam": [
            {
              "name": "_language",
              "type": "string",
              "documentation": "The language of the resource"
            },
            {
              "name": "date",
              "type": "date",
              "documentation": "The structure definition publication date"
            },
            {
              "name": "context-type-value",
              "type": "composite",
              "documentation": "A use context type and value assigned to the structure definition"
            },
            {
              "name": "jurisdiction",
              "type": "token",
              "documentation": "Intended jurisdiction for the structure definition"
            },
            {
              "name": "description",
              "type": "string",
              "documentation": "The description of the structure definition"
            },
            {
              "name": "context-type",
              "type": "token",
              "documentation": "A type of use context assigned to the structure definition"
            },
            {
              "name": "experimental",
              "type": "token",
              "documentation": "For testing purposes, not real usage"
            },
            {
              "name": "title",
              "type": "string",
              "documentation": "The human-friendly name of the structure definition"
            },
            {
              "name": "type",
              "type": "uri",
              "documentation": "Type defined or constrained by this structure"
            },
            {
              "name": "context-quantity",
              "type": "quantity",
              "documentation": "A quantity- or range-valued use context assigned to the structure definition"
            },
            {
              "name": "path",
              "type": "token",
              "documentation": "A path that is constrained in the StructureDefinition"
            },
            {
              "name": "base-path",
              "type": "token",
              "documentation": "Path that identifies the base element"
            },
            {
              "name": "context",
              "type": "token",
              "documentation": "A use context assigned to the structure definition"
            },
            {
              "name": "keyword",
              "type": "token",
              "documentation": "A code for the StructureDefinition"
            },
            {
              "name": "context-type-quantity",
              "type": "composite",
              "documentation": "A use context type and quantity- or range-based value assigned to the structure definition"
            },
            {
              "name": "identifier",
              "type": "token",
              "documentation": "External identifier for the structure definition"
            },
            {
              "name": "valueset",
              "type": "reference",
              "documentation": "A vocabulary binding reference"
            },
            {
              "name": "kind",
              "type": "token",
              "documentation": "primitive-type | complex-type | resource | logical"
            },
            {
              "name": "abstract",
              "type": "token",
              "documentation": "Whether the structure is abstract"
            },
            {
              "name": "version",
              "type": "token",
              "documentation": "The business version of the structure definition"
            },
            {
              "name": "url",
              "type": "uri",
              "documentation": "The uri that identifies the structure definition"
            },
            {
              "name": "ext-context",
              "type": "token",
              "documentation": "The system is the URL for the context-type: e.g. http://hl7.org/fhir/extension-context-type#element|CodeableConcept.text"
            },
            {
              "name": "name",
              "type": "string",
              "documentation": "Computationally friendly name of the structure definition"
            },
            {
              "name": "publisher",
              "type": "string",
              "documentation": "Name of the publisher of the structure definition"
            },
            {
              "name": "derivation",
              "type": "token",
              "documentation": "specialization | constraint - How relates to base definition"
            },
            {
              "name": "_id",
              "type": "token",
              "documentation": "The ID of the resource"
            },
            {
              "name": "base",
              "type": "reference",
              "documentation": "Definition that this type is constrained/specialized from"
            },
            {
              "name": "status",
              "type": "token",
              "documentation": "The current status of the structure definition"
            }
          ]
        }
      ],
      "interaction": [
        {
          "code": "history-system"
        },
        {
          "code": "transaction"
        }
      ],
      "operation": [
        {
          "name": "mark-all-resources-for-reindexing",
          "definition": "OperationDefinition/-s-mark-all-resources-for-reindexing"
        },
        {
          "name": "perform-reindexing-pass",
          "definition": "OperationDefinition/-s-perform-reindexing-pass"
        },
        {
          "name": "get-resource-counts",
          "definition": "OperationDefinition/-s-get-resource-counts"
        },
        {
          "name": "expunge",
          "definition": "OperationDefinition/-s-expunge"
        },
        {
          "name": "expunge",
          "definition": "OperationDefinition/-is-expunge"
        },
        {
          "name": "suggest-keywords",
          "definition": "OperationDefinition/-s-suggest-keywords"
        },
        {
          "name": "meta",
          "definition": "OperationDefinition/-s-meta"
        },
        {
          "name": "getPlanDefinitionByOrganization",
          "definition": "OperationDefinition/PlanDefinition-query-getPlanDefinitionByOrganization"
        },
        {
          "name": "getByUrl",
          "definition": "OperationDefinition/PlanDefinition-query-getByUrl"
        },
        {
          "name": "getByIdentifier",
          "definition": "OperationDefinition/PlanDefinition-query-getByIdentifier"
        }
      ]
    }
  ]
}